GridDER: Grid Detection and Evaluation in R
…
0.3 Metada

A metadata sheet with all grid systems compiled

meta_data <- gsheet::gsheet2tbl("https://docs.google.com/spreadsheets/d/1Qp5KOpLSVnF2t16uIbNwKwK5ZBXt4k5unONp7eopPzI/edit#gid=166945453") |> 
  as_tibble()

meta_data

## # A tibble: 34 × 14
##    grid_ID \nISO-3166\…¹ count…² crs_t…³ crs_c…⁴ grid_…⁵ resol…⁶ resol…⁷ resol…⁸
##      <dbl> <chr>         <chr>   <chr>   <chr>   <chr>     <dbl>   <dbl> <chr>  
##  1       2 FR            France  EPSG    2154    Grille…      10      10 km     
##  2       3 FR            France  EPSG    2975    Grille…      10      10 km     
##  3       5 NL            Nether… EPSG    28992   Amersf…       1       1 km     
##  4       6 BE            Belgium from_s… n/a     <NA>          4       4 km     
##  5       7 BE            Belgium from_s… n/a     <NA>          1       1 km     
##  6       8 CH            Switze… EPSG    2056    <NA>          5       5 km     
##  7       9 RU            Russia  EPSG    4326    <NA>         10       5 minute 
##  8      10 RU            Russia  EPSG    4326    <NA>         30      30 minute 
##  9      11 BG,GR,RO,RS,… Bulgar… EPSG    4326    eoagri…      30      30 minute 
## 10      12 SE            Sweden  EPSG    3021    The Sw…      25      25 km     
## # … with 24 more rows, 5 more variables: extent <chr>, extent_unit <chr>,
## #   path_demo_occ <chr>, spatial_uncertainty_mean_grid <dbl>,
## #   spatial_uncertainty_mean_nongrid <dbl>, and abbreviated variable names
## #   ¹​`\nISO-3166\nalpha2_https://www.geonames.org/countries/`, ²​country_name,
## #   ³​crs_type, ⁴​crs_code, ⁵​grid_name, ⁶​resolution_x, ⁷​resolution_y,
## #   ⁸​resolution_unit
## # ℹ Use `print(n = ...)` to see more rows, and `colnames()` to see all variable names
…
